<define-tag pagetitle>DLA-1325-1 drupal7</define-tag>
<define-tag report_date>2018-3-28</define-tag>
<define-tag secrefs>CVE-2018-7600</define-tag>
<define-tag packages>drupal7</define-tag>
<define-tag isvulnerable>yes</define-tag>
<define-tag fixed>yes</define-tag>
<define-tag fixed-section>no</define-tag>

#use wml::debian::security

