<define-tag pagetitle>DLA-1470-1 confuse</define-tag>
<define-tag report_date>2018-8-18</define-tag>
<define-tag secrefs>CVE-2018-14447 Bug#904159</define-tag>
<define-tag packages>confuse</define-tag>
<define-tag isvulnerable>yes</define-tag>
<define-tag fixed>yes</define-tag>
<define-tag fixed-section>no</define-tag>

#use wml::debian::security

